
<!-- Generated by graphviz version 2.47.0 (20210316.0004)
 -->
<!-- Title: Argument Map Pages: 1 -->
<svg width="1088pt" height="340pt"
 viewBox="0.00 0.00 1088.00 340.00" xmlns="http://www.w3.org/2000/svg" xmlns:xlink="http://www.w3.org/1999/xlink">
<g id="graph0" class="graph" transform="scale(1 1) rotate(0) translate(4 336)">
<title>Argument Map</title>
<!-- n0 -->
<g id="node1" class="node">
<title>n0</title>
<path fill="white" stroke="#1b9e77" stroke-width="2" d="M637,-332C637,-332 465,-332 465,-332 459,-332 453,-326 453,-320 453,-320 453,-280 453,-280 453,-274 459,-268 465,-268 465,-268 637,-268 637,-268 643,-268 649,-274 649,-280 649,-280 649,-320 649,-320 649,-326 643,-332 637,-332"/>
<text text-anchor="start" x="491.83" y="-318" font-family="arial" font-weight="bold" font-size="10.00" fill="#000000">Masken&#45;Bitte nicht sinnvoll</text>
<text text-anchor="start" x="467.93" y="-301" font-family="arial" font-size="10.00" fill="#000000">Bitte darum, Masken zu tragen, (nicht</text>
<text text-anchor="start" x="481.82" y="-289" font-family="arial" font-size="10.00" fill="#000000"> als Pflicht) seitens der Orga ist</text>
<text text-anchor="start" x="519.61" y="-277" font-family="arial" font-size="10.00" fill="#000000"> nicht sinnvoll.</text>
</g>
<!-- n1 -->
<g id="node2" class="node">
<title>n1</title>
<path fill="#1b9e77" stroke="black" d="M196,-232C196,-232 12,-232 12,-232 6,-232 0,-226 0,-220 0,-220 0,-132 0,-132 0,-126 6,-120 12,-120 12,-120 196,-120 196,-120 202,-120 208,-126 208,-132 208,-132 208,-220 208,-220 208,-226 202,-232 196,-232"/>
<text text-anchor="start" x="22.88" y="-218" font-family="arial" font-weight="bold" font-size="10.00" fill="#000000">Nicht&#45;Befolgung durch Unvorsichtige</text>
<text text-anchor="start" x="42.89" y="-201" font-family="arial" font-size="10.00" fill="#000000">Als Bitte formuliert, wird der</text>
<text text-anchor="start" x="35.65" y="-189" font-family="arial" font-size="10.00" fill="#000000"> Sicherheitsgewinn sehr gering</text>
<text text-anchor="start" x="20.92" y="-177" font-family="arial" font-size="10.00" fill="#000000"> ausfallen, denn dann richten sich nur</text>
<text text-anchor="start" x="20.64" y="-165" font-family="arial" font-size="10.00" fill="#000000"> die danach, die auch sonst umsichtig</text>
<text text-anchor="start" x="9.82" y="-153" font-family="arial" font-size="10.00" fill="#000000"> sind. Gerade die Unvorsichtigen würden</text>
<text text-anchor="start" x="20.37" y="-141" font-family="arial" font-size="10.00" fill="#000000"> sich auch nicht nach solch einer Bitte</text>
<text text-anchor="start" x="57.33" y="-129" font-family="arial" font-size="10.00" fill="#000000"> richten (siehe GPN).</text>
</g>
<!-- n1&#45;&gt;n0 -->
<g id="edge2" class="edge">
<title>n1&#45;&gt;n0</title>
<path fill="none" stroke="#00ff00" d="M208.26,-228.91C211.19,-229.99 214.11,-231.02 217,-232 290.55,-256.82 376.49,-273.8 442.77,-284.46"/>
<polygon fill="#00ff00" stroke="#00ff00" points="442.4,-287.94 452.82,-286.05 443.49,-281.03 442.4,-287.94"/>
</g>
<!-- n2 -->
<g id="node3" class="node">
<title>n2</title>
<path fill="#d95f02" stroke="black" d="M190,-80C190,-80 18,-80 18,-80 12,-80 6,-74 6,-68 6,-68 6,-16 6,-16 6,-10 12,-4 18,-4 18,-4 190,-4 190,-4 196,-4 202,-10 202,-16 202,-16 202,-68 202,-68 202,-74 196,-80 190,-80"/>
<text text-anchor="start" x="64.27" y="-66" font-family="arial" font-weight="bold" font-size="10.00" fill="#000000">Hohe Compliance</text>
<text text-anchor="start" x="30.38" y="-49" font-family="arial" font-size="10.00" fill="#000000">Als Bitte formuliert, vorgelebt und</text>
<text text-anchor="start" x="22.33" y="-37" font-family="arial" font-size="10.00" fill="#000000"> wiederholt wird die Compliance sehr</text>
<text text-anchor="start" x="20.36" y="-25" font-family="arial" font-size="10.00" fill="#000000"> hoch sein, und nur wenige Menschys</text>
<text text-anchor="start" x="21.2" y="-13" font-family="arial" font-size="10.00" fill="#000000"> werden sich nicht daran halten. #con</text>
</g>
<!-- n2&#45;&gt;n1 -->
<g id="edge1" class="edge">
<title>n2&#45;&gt;n1</title>
<path fill="none" stroke="#ff0000" d="M104,-80.12C104,-89.39 104,-99.6 104,-109.78"/>
<polygon fill="#ff0000" stroke="#ff0000" points="100.5,-109.92 104,-119.92 107.5,-109.92 100.5,-109.92"/>
</g>
<!-- n3 -->
<g id="node4" class="node">
<title>n3</title>
<path fill="#1b9e77" stroke="black" d="M420,-208C420,-208 238,-208 238,-208 232,-208 226,-202 226,-196 226,-196 226,-156 226,-156 226,-150 232,-144 238,-144 238,-144 420,-144 420,-144 426,-144 432,-150 432,-156 432,-156 432,-196 432,-196 432,-202 426,-208 420,-208"/>
<text text-anchor="start" x="244.81" y="-194" font-family="arial" font-weight="bold" font-size="10.00" fill="#000000">Masken bieten nur begrenzten Schutz</text>
<text text-anchor="start" x="240.64" y="-177" font-family="arial" font-size="10.00" fill="#000000">Masken helfen nur bedingt und nur für</text>
<text text-anchor="start" x="235.92" y="-165" font-family="arial" font-size="10.00" fill="#000000"> eine begrenzte Zeit → Es würde falsche</text>
<text text-anchor="start" x="282.33" y="-153" font-family="arial" font-size="10.00" fill="#000000"> Sicherheit vermittelt.</text>
</g>
<!-- n3&#45;&gt;n0 -->
<g id="edge3" class="edge">
<title>n3&#45;&gt;n0</title>
<path fill="none" stroke="#00ff00" d="M385.59,-208.1C416.12,-224.88 453.95,-245.67 485.72,-263.13"/>
<polygon fill="#00ff00" stroke="#00ff00" points="484.06,-266.21 494.51,-267.96 487.43,-260.07 484.06,-266.21"/>
</g>
<!-- n4 -->
<g id="node5" class="node">
<title>n4</title>
<path fill="#1b9e77" stroke="black" d="M639.5,-202C639.5,-202 462.5,-202 462.5,-202 456.5,-202 450.5,-196 450.5,-190 450.5,-190 450.5,-162 450.5,-162 450.5,-156 456.5,-150 462.5,-150 462.5,-150 639.5,-150 639.5,-150 645.5,-150 651.5,-156 651.5,-162 651.5,-162 651.5,-190 651.5,-190 651.5,-196 645.5,-202 639.5,-202"/>
<text text-anchor="start" x="506.77" y="-188" font-family="arial" font-weight="bold" font-size="10.00" fill="#000000">Belastete Stimmung</text>
<text text-anchor="start" x="460.75" y="-171" font-family="arial" font-size="10.00" fill="#000000">Sozialer Druck könnte die Stimmung auf</text>
<text text-anchor="start" x="495.93" y="-159" font-family="arial" font-size="10.00" fill="#000000"> dem Congress belasten.</text>
</g>
<!-- n4&#45;&gt;n0 -->
<g id="edge6" class="edge">
<title>n4&#45;&gt;n0</title>
<path fill="none" stroke="#00ff00" d="M551,-202.28C551,-218.22 551,-239.19 551,-257.53"/>
<polygon fill="#00ff00" stroke="#00ff00" points="547.5,-257.68 551,-267.68 554.5,-257.68 547.5,-257.68"/>
</g>
<!-- n5 -->
<g id="node6" class="node">
<title>n5</title>
<path fill="#1b9e77" stroke="black" d="M531,-84C531,-84 355,-84 355,-84 349,-84 343,-78 343,-72 343,-72 343,-12 343,-12 343,-6 349,0 355,0 355,0 531,0 531,0 537,0 543,-6 543,-12 543,-12 543,-72 543,-72 543,-78 537,-84 531,-84"/>
<text text-anchor="start" x="353.26" y="-70" font-family="arial" font-weight="bold" font-size="10.00" fill="#000000">Druck auf gesundheitlich eingeschränkte</text>
<text text-anchor="start" x="418.55" y="-60" font-family="arial" font-weight="bold" font-size="10.00" fill="#000000"> Menschen</text>
<text text-anchor="start" x="362.14" y="-45" font-family="arial" font-size="10.00" fill="#000000">Menschen, die aus gesundheitlichen</text>
<text text-anchor="start" x="352.52" y="-33" font-family="arial" font-size="10.00" fill="#000000"> Gründen keine Maske tragen können,</text>
<text text-anchor="start" x="357.99" y="-21" font-family="arial" font-size="10.00" fill="#000000"> müssten das zwar nicht, wären aber</text>
<text text-anchor="start" x="377.43" y="-9" font-family="arial" font-size="10.00" fill="#000000"> ständigem Druck ausgesetzt.</text>
</g>
<!-- n5&#45;&gt;n4 -->
<g id="edge4" class="edge">
<title>n5&#45;&gt;n4</title>
<path fill="none" stroke="#00ff00" d="M476.58,-84.04C491.83,-102.68 509.63,-124.43 523.99,-141.99"/>
<polygon fill="#00ff00" stroke="#00ff00" points="521.29,-144.22 530.33,-149.74 526.71,-139.78 521.29,-144.22"/>
</g>
<!-- n6 -->
<g id="node7" class="node">
<title>n6</title>
<path fill="#d95f02" stroke="black" d="M745,-80C745,-80 573,-80 573,-80 567,-80 561,-74 561,-68 561,-68 561,-16 561,-16 561,-10 567,-4 573,-4 573,-4 745,-4 745,-4 751,-4 757,-10 757,-16 757,-16 757,-68 757,-68 757,-74 751,-80 745,-80"/>
<text text-anchor="start" x="577.59" y="-66" font-family="arial" font-weight="bold" font-size="10.00" fill="#000000">Aktuelle Situation belastet Stimmung</text>
<text text-anchor="start" x="582.59" y="-49" font-family="arial" font-size="10.00" fill="#000000">Unter der aktuellen Situation leidet</text>
<text text-anchor="start" x="575.66" y="-37" font-family="arial" font-size="10.00" fill="#000000"> die Stimmung in der Community. Der</text>
<text text-anchor="start" x="571.2" y="-25" font-family="arial" font-size="10.00" fill="#000000"> Schaden ist m∃ massiv und dauerhaft.</text>
<text text-anchor="start" x="646.77" y="-13" font-family="arial" font-size="10.00" fill="#000000"> #con</text>
</g>
<!-- n6&#45;&gt;n4 -->
<g id="edge5" class="edge">
<title>n6&#45;&gt;n4</title>
<path fill="none" stroke="#ff0000" d="M628.63,-80.12C612.69,-99.6 593.33,-123.27 577.93,-142.09"/>
<polygon fill="#ff0000" stroke="#ff0000" points="575.21,-139.88 571.59,-149.83 580.63,-144.31 575.21,-139.88"/>
</g>
<!-- n7 -->
<g id="node8" class="node">
<title>n7</title>
<path fill="#1b9e77" stroke="black" d="M854,-208C854,-208 682,-208 682,-208 676,-208 670,-202 670,-196 670,-196 670,-156 670,-156 670,-150 676,-144 682,-144 682,-144 854,-144 854,-144 860,-144 866,-150 866,-156 866,-156 866,-196 866,-196 866,-202 860,-208 854,-208"/>
<text text-anchor="start" x="731.6" y="-194" font-family="arial" font-weight="bold" font-size="10.00" fill="#000000">Gesichter sehen</text>
<text text-anchor="start" x="683.82" y="-177" font-family="arial" font-size="10.00" fill="#000000">Das Problem, dass man die Gesichter</text>
<text text-anchor="start" x="682.41" y="-165" font-family="arial" font-size="10.00" fill="#000000"> nicht sehen kann, besteht unabhängig</text>
<text text-anchor="start" x="697.98" y="-153" font-family="arial" font-size="10.00" fill="#000000"> ob es Pflicht ist oder eine Bitte.</text>
</g>
<!-- n7&#45;&gt;n0 -->
<g id="edge7" class="edge">
<title>n7&#45;&gt;n0</title>
<path fill="none" stroke="#00ff00" d="M712.68,-208.1C682.97,-224.81 646.18,-245.49 615.21,-262.9"/>
<polygon fill="#00ff00" stroke="#00ff00" points="613.22,-260 606.22,-267.96 616.65,-266.11 613.22,-260"/>
</g>
<!-- n8 -->
<g id="node9" class="node">
<title>n8</title>
<path fill="#d95f02" stroke="black" d="M1068,-208C1068,-208 896,-208 896,-208 890,-208 884,-202 884,-196 884,-196 884,-156 884,-156 884,-150 890,-144 896,-144 896,-144 1068,-144 1068,-144 1074,-144 1080,-150 1080,-156 1080,-156 1080,-196 1080,-196 1080,-202 1074,-208 1068,-208"/>
<text text-anchor="start" x="908.38" y="-194" font-family="arial" font-weight="bold" font-size="10.00" fill="#000000">Zusammenhalt in der Community</text>
<text text-anchor="start" x="899.76" y="-177" font-family="arial" font-size="10.00" fill="#000000">Gute Vorbilder und hohe Compliance</text>
<text text-anchor="start" x="906.15" y="-165" font-family="arial" font-size="10.00" fill="#000000"> werden den Zusammenhalt in der</text>
<text text-anchor="start" x="924.31" y="-153" font-family="arial" font-size="10.00" fill="#000000"> Community fördern #con</text>
</g>
<!-- n8&#45;&gt;n0 -->
<g id="edge8" class="edge">
<title>n8&#45;&gt;n0</title>
<path fill="none" stroke="#ff0000" d="M928.56,-208.06C911.83,-216.8 893.02,-225.64 875,-232 805.08,-256.68 723.28,-273.51 659.37,-284.13"/>
<polygon fill="#ff0000" stroke="#ff0000" points="658.58,-280.71 649.27,-285.78 659.71,-287.62 658.58,-280.71"/>
</g>
</g>
</svg>
